<?xml version="1.0" encoding="UTF-8" standalone="no"?>
<svg
   xmlns:dc="http://purl.org/dc/elements/1.1/"
   xmlns:cc="http://creativecommons.org/ns#"
   xmlns:rdf="http://www.w3.org/1999/02/22-rdf-syntax-ns#"
   xmlns:svg="http://www.w3.org/2000/svg"
   xmlns="http://www.w3.org/2000/svg"
   version="1.1"
   id="svg2"
   viewBox="0 0 850.00001 850.00001"
   height="850"
   width="850">
  <metadata
     id="metadata7">
    <rdf:RDF>
      <cc:Work
         rdf:about="">
        <dc:format>image/svg+xml</dc:format>
        <dc:type
           rdf:resource="http://purl.org/dc/dcmitype/StillImage" />
        <dc:title></dc:title>
      </cc:Work>
    </rdf:RDF>
  </metadata>
  <g
     transform="translate(0,-202.36216)"
     id="layer1">
    <path
       id="path3347"
       d="M 135.11443,959.09577 C 57.487504,920.78485 23.149524,829.91782 54.820292,746.61745 61.979198,727.78814 163.58639,613.41502 280.6141,492.45514 492.1017,273.86147 493.78105,272.52808 557.6124,272.52808 c 56.59475,0 72.88839,8.10754 137.21301,68.27573 127.3406,119.11209 145.57419,196.84234 67.87391,289.34662 -109.52315,130.39023 -335.63126,348.407 -354.01938,341.35069 -41.78064,-16.03276 -13.57913,-58.22795 154.03449,-230.4671 207.72126,-213.45346 209.58714,-219.91333 96.25513,-333.24535 -42.55984,-42.55996 -87.4587,-77.38165 -99.77503,-77.38165 -12.3165,0 -117.48946,98.29116 -233.71773,218.42466 -164.95019,170.49267 -211.27547,226.85431 -211.10255,256.83776 0.11573,21.12726 5.00551,45.57748 10.8523,54.33414 18.40347,27.56166 75.76047,51.13791 103.21259,42.42496 C 265.37458,890.7056 580.07494,549.36692 569.58944,532.40086 550.0647,500.80924 513.93103,525.36771 387.21582,656.35179 313.87553,732.16276 246.85116,791.85346 238.27278,788.99771 191.20751,773.32973 219.4941,724.77395 354.81808,588.94018 474.06722,469.24193 504.34006,446.16487 542.11315,446.16487 c 56.7458,0 92.94995,38.91578 92.94995,99.91163 0,39.93646 -24.43187,73.03626 -162.78449,220.53753 C 265.92283,986.61491 231.12589,1006.48 135.11443,959.09577 Z"
       />
  </g>
</svg>
