<?xml version="1.0" encoding="UTF-8" standalone="no"?>
<svg
   xmlns:dc="http://purl.org/dc/elements/1.1/"
   xmlns:cc="http://creativecommons.org/ns#"
   xmlns:rdf="http://www.w3.org/1999/02/22-rdf-syntax-ns#"
   xmlns:svg="http://www.w3.org/2000/svg"
   xmlns="http://www.w3.org/2000/svg"
   version="1.1"
   id="svg3349"
   viewBox="0 0 850.00001 850.00001"
   height="850"
   width="850">

  <metadata
     id="metadata3354">
    <rdf:RDF>
      <cc:Work
         rdf:about="">
        <dc:format>image/svg+xml</dc:format>
        <dc:type
           rdf:resource="http://purl.org/dc/dcmitype/StillImage" />
        <dc:title></dc:title>
      </cc:Work>
    </rdf:RDF>
  </metadata>
  <g
     transform="translate(0,-202.36216)"
     id="layer1">
    <path
       id="path3368"
       d="m 197.06123,766.39159 -90.27406,-90.27853 31.74261,-31.72981 31.74261,-31.7298 58.01567,58.00872 58.01567,58.00873 183.66444,-183.66665 183.66444,-183.66665 32.52576,32.51346 32.52576,32.51347 -215.15092,215.15281 c -118.333,118.33403 -215.38649,215.15279 -215.67441,215.15279 -0.28792,0 -41.14682,-40.62535 -90.79757,-90.27854 z"
        />
  </g>
</svg>
