<?xml version="1.0" encoding="UTF-8" standalone="no"?>
<svg
   xmlns:dc="http://purl.org/dc/elements/1.1/"
   xmlns:cc="http://creativecommons.org/ns#"
   xmlns:rdf="http://www.w3.org/1999/02/22-rdf-syntax-ns#"
   xmlns:svg="http://www.w3.org/2000/svg"
   xmlns="http://www.w3.org/2000/svg"
   version="1.1"
   id="svg2"
   viewBox="0 0 850.00001 850.00001"
   height="850"
   width="850">

  <metadata
     id="metadata7">
    <rdf:RDF>
      <cc:Work
         rdf:about="">
        <dc:format>image/svg+xml</dc:format>
        <dc:type
           rdf:resource="http://purl.org/dc/dcmitype/StillImage" />
        <dc:title></dc:title>
      </cc:Work>
    </rdf:RDF>
  </metadata>
  <g
     transform="translate(0,-202.36216)"
     id="layer1">
    <path
       id="path3347"
       d="M 95.400926,763.91306 7.13884,675.64661 l 31.03515,-31.02264 31.03514,-31.02262 56.72265,56.71586 56.72264,56.71586 179.57103,-179.57319 179.57102,-179.57318 31.80084,31.78882 31.80085,31.78883 -210.35574,210.35758 C 279.34676,757.51861 184.45634,852.17952 184.17484,852.17952 c -0.2815,0 -40.22976,-39.71991 -88.773914,-88.26646 z m 274.341964,35.14342 -50.31154,-50.07075 30.80092,-30.81334 30.80092,-30.81335 18.91676,18.89711 18.91676,18.8971 179.14304,-179.73879 C 754.6529,388.25039 777.3881,365.81226 779.02647,366.76316 c 1.03045,0.59811 15.38001,14.59347 31.88785,31.1008 l 30.01424,30.01331 -55.47894,55.72093 c -30.51337,30.64651 -107.47726,107.9152 -171.03082,171.7082 -63.55357,63.793 -132.85916,133.49982 -154.01245,154.90404 -21.15328,21.40423 -38.88609,38.91678 -39.40622,38.91678 -0.52014,0 -23.5859,-22.53183 -51.25724,-50.07074 z"
        />
  </g>
</svg>
