<?xml version="1.0" encoding="UTF-8" standalone="no"?>
<svg
   xmlns:dc="http://purl.org/dc/elements/1.1/"
   xmlns:cc="http://creativecommons.org/ns#"
   xmlns:rdf="http://www.w3.org/1999/02/22-rdf-syntax-ns#"
   xmlns:svg="http://www.w3.org/2000/svg"
   xmlns="http://www.w3.org/2000/svg"
   version="1.1"
   id="svg3387"
   viewBox="0 0 850.00001 850.00001"
   height="850"
   width="850">
  <metadata
     id="metadata3392">
    <rdf:RDF>
      <cc:Work
         rdf:about="">
        <dc:format>image/svg+xml</dc:format>
        <dc:type
           rdf:resource="http://purl.org/dc/dcmitype/StillImage" />
        <dc:title></dc:title>
      </cc:Work>
    </rdf:RDF>
  </metadata>
  <g
     transform="translate(0,-202.36216)"
     id="layer1">
    <path
       id="path3406"
       d="m 394.97441,1041.2566 c -1.42199,-0.2491 -8.69344,-1.1145 -16.15877,-1.9229 C 322.5246,1033.2378 259.66839,1010.9116 211.41078,979.87256 129.3035,927.0616 68.260471,847.11267 39.649005,754.91372 10.68189,661.5687 15.496927,560.97829 53.225885,471.28064 80.029371,407.55746 121.84052,352.25707 176.50784,308.22514 c 13.46689,-10.84697 36.72118,-26.53874 51.06171,-34.45596 4.6214,-2.55144 11.1737,-6.17768 14.56066,-8.05835 14.02538,-7.78775 43.66397,-19.7672 68.81859,-27.81537 9.68615,-3.09906 30.8381,-8.09197 44.44,-10.49006 119.82633,-21.12596 240.25698,12.57246 333.02886,93.18682 53.35675,46.36448 97.14631,111.76854 118.98786,177.72023 4.75283,14.35136 9.49084,30.52335 10.79385,36.842 8.26894,40.09822 10.79537,62.13992 10.89048,95.01357 0.36959,127.75033 -56.22681,245.93352 -155.74003,325.21243 -54.81605,43.67015 -120.03637,71.84025 -191.74966,82.82095 -12.57976,1.9262 -25.2927,2.693 -50.43012,3.0419 -18.48563,0.2565 -34.77367,0.2626 -36.19565,0.013 z m 78.20844,-29.6374 c 55.88857,-8.0961 99.62659,-23.65147 146.63633,-52.15101 73.70034,-44.68061 131.728,-116.78666 160.97511,-200.03001 C 802.00188,699.07695 807.71704,630.6271 796.87628,566.82564 785.3777,499.15277 756.43432,436.29367 712.9499,384.55471 699.85566,368.97482 674.11497,343.46193 659.95129,332.02514 587.17597,273.26096 494.58903,243.49141 403.28982,249.50058 c -56.06785,3.69032 -106.03205,17.70867 -152.4162,42.76312 -22.39651,12.09749 -29.39191,16.5298 -48.51176,30.73713 -107.333345,79.7558 -165.65914,211.74289 -152.59073,345.30189 4.961699,50.70849 17.756399,94.46629 40.995732,140.20513 57.043868,112.27179 170.305298,190.93375 293.219578,203.64605 8.17633,0.8456 15.73864,1.7465 16.80512,2.002 4.86148,1.1647 60.23543,-0.7757 72.39129,-2.5367 z m -54.44667,-68.62138 c -1.86174,-1.01175 -4.33403,-3.83952 -5.49398,-6.28394 -2.7655,-5.82781 -2.76318,-19.08956 0.004,-24.92166 4.7029,-9.91061 17.48716,-10.89838 22.88068,-1.76787 1.56403,2.64771 2.15271,6.71812 2.15271,14.88519 0,11.06023 -0.0707,11.31161 -4.39519,15.63613 -4.84303,4.84304 -9.39356,5.57965 -15.14854,2.45215 z M 206.39005,852.31023 c -6.93999,-6.93998 -6.16728,-12.70024 3.05764,-22.79379 7.46123,-8.16376 12.32492,-10.61534 18.69063,-9.42112 6.20947,1.16489 9.77284,6.05686 9.77284,13.41664 0,5.47076 -0.54156,6.39981 -8.18711,14.04539 -7.64476,7.64475 -8.57506,8.18711 -14.04345,8.18711 -4.61521,0 -6.58412,-0.72782 -9.29055,-3.43423 z m 414.23116,-4.89733 c -7.75208,-7.8216 -8.25749,-8.69675 -8.25749,-14.29805 0,-8.3321 4.54815,-12.9197 12.80859,-12.9197 5.52078,0 6.33178,0.49058 14.19034,8.58406 7.70099,7.93118 8.33491,9.01887 8.33491,14.30104 0,7.96114 -4.84079,12.66421 -13.0351,12.66421 -5.39747,0 -6.33526,-0.55645 -14.04125,-8.33156 z M 412.74992,683.11044 c -16.14435,-4.34731 -28.33361,-14.46872 -35.75584,-29.69003 l -4.67737,-9.59219 -50.50481,-0.3666 -50.50481,-0.36659 -3.77096,-4.22168 c -6.23661,-6.98203 -4.57393,-16.66622 3.57711,-20.8347 1.9332,-0.98866 18.31212,-1.444 51.94103,-1.444 l 49.11746,0 4.5815,-9.52533 c 5.52867,-11.49456 16.20528,-22.04937 27.05914,-26.75038 l 7.27667,-3.15169 0.0221,-70.21405 c 0.0228,-72.91691 0.004,-72.648 5.57975,-78.76981 4.09768,-4.49888 12.86997,-4.07033 17.81038,0.8701 l 3.77867,3.77865 0,71.83151 0,71.83151 8.38655,3.80264 c 34.73921,15.75152 43.05234,61.08629 16.16731,88.16675 -14.06791,14.17017 -32.1806,19.46681 -50.08385,14.64589 z m 23.7804,-28.55695 c 6.02921,-2.49932 13.00878,-11.35461 14.52617,-18.42998 2.35417,-10.97714 -1.7633,-22.09089 -10.40237,-28.07778 -12.75977,-8.84252 -29.13675,-5.72256 -37.81891,7.20486 -5.21108,7.75909 -5.57124,19.86318 -0.83763,28.14985 7.00834,12.26883 20.9663,16.77685 34.53274,11.15305 z M 123.50707,642.51932 c -5.01154,-2.05117 -7.75621,-6.50748 -7.75621,-12.59306 0,-4.90338 0.6449,-6.3637 4.22166,-9.55955 3.99261,-3.56737 4.84446,-3.77206 15.69888,-3.77206 10.88126,0 11.68569,0.19474 15.49202,3.7504 7.14122,6.67089 4.79361,18.61289 -4.34177,22.08615 -4.06707,1.54631 -19.6084,1.60503 -23.31458,0.0882 z m 578.48397,-0.42307 c -4.26735,-2.12198 -8.27192,-10.34389 -7.1722,-14.72549 0.46259,-1.84315 2.51169,-5.02179 4.55355,-7.06364 3.5346,-3.5346 4.26629,-3.71247 15.27188,-3.71247 13.24827,0 17.09145,1.8994 19.6735,9.72317 1.2514,3.79171 1.11156,5.28288 -0.87593,9.34167 -3.13735,6.40694 -6.90679,8.04378 -18.5238,8.04378 -5.33239,0 -11.14954,-0.72316 -12.927,-1.60702 z M 218.47358,438.51648 c -5.98183,-4.11166 -15.43967,-15.37536 -16.2305,-19.32954 -1.68164,-8.40817 7.00819,-16.94469 15.60693,-15.33155 2.88872,0.54193 6.6461,3.34717 12.12361,9.05143 6.66962,6.9457 7.93754,8.99699 7.93754,12.84162 0,6.16537 -2.06849,10.2979 -6.44994,12.88609 -4.66727,2.75702 -8.8603,2.71892 -12.98763,-0.11802 z m 399.94828,-0.15279 c -4.61121,-2.8873 -7.4756,-9.77853 -6.19135,-14.89539 1.13178,-4.5094 14.76886,-18.49926 19.08992,-19.58377 8.72508,-2.18986 16.37713,4.03293 16.37713,13.31817 0,5.33082 -0.61505,6.40193 -8.07938,14.07014 -9.41899,9.67627 -14.40389,11.34387 -21.19632,7.09085 z M 421.89735,355.82931 c -4.18922,-0.76673 -9.298,-6.52361 -10.23861,-11.5375 -1.43814,-7.66599 0.046,-19.55793 2.92148,-23.40938 5.00827,-6.70804 14.71469,-7.04848 20.5781,-0.72175 2.83699,3.06115 3.12158,4.46877 3.12158,15.43974 0,11.39224 -0.20003,12.28386 -3.55493,15.84539 -3.63592,3.85986 -7.83974,5.2964 -12.82762,4.3835 z"
       />
  </g>
</svg>
