<svg
 xmlns="http://www.w3.org/2000/svg"
 xmlns:xlink="http://www.w3.org/1999/xlink"
 width="606px" height="119px">
<defs>
<filter filterUnits="userSpaceOnUse" id="Filter_0" x="0px" y="0px" width="606px" height="119px"  >
    <feOffset in="SourceAlpha" dx="2" dy="3.464" />
    <feGaussianBlur result="blurOut" stdDeviation="3.606" />
    <feFlood flood-color="rgb(0, 0, 0)" result="floodOut" />
    <feComposite operator="atop" in="floodOut" in2="blurOut" />
    <feComponentTransfer><feFuncA type="linear" slope="0.26"/></feComponentTransfer>
    <feMerge>
    <feMergeNode/>
    <feMergeNode in="SourceGraphic"/>
  </feMerge>
</filter>

</defs>
<g filter="url(#Filter_0)">
<path fill-rule="evenodd"  fill="rgb(255, 255, 255)"
 d="M571.274,56.177 C576.687,57.092 580.208,57.860 581.840,58.481 C584.511,59.457 586.581,60.962 588.047,62.995 C589.513,65.029 590.246,67.509 590.246,70.437 C590.246,74.471 588.657,77.888 585.479,80.685 C582.300,83.484 578.268,84.882 573.379,84.882 C568.848,84.882 564.642,83.385 560.763,80.390 L557.194,84.492 L554.603,84.492 L553.625,66.279 L556.897,66.279 C558.915,71.911 561.234,75.809 563.855,77.973 C566.475,80.138 569.706,81.220 573.547,81.220 C577.095,81.220 579.822,80.447 581.726,78.901 C583.630,77.355 584.582,75.394 584.582,73.017 C584.582,71.650 584.231,70.454 583.530,69.428 C582.829,68.403 581.859,67.638 580.620,67.133 C579.380,66.629 576.167,65.888 570.981,64.912 C566.024,63.935 562.568,62.910 560.613,61.835 C558.658,60.761 557.135,59.280 556.044,57.392 C554.952,55.505 554.407,53.454 554.407,51.240 C554.407,47.887 555.531,44.843 557.781,42.109 C560.682,38.626 564.741,36.884 569.957,36.884 C573.934,36.884 577.618,38.138 581.008,40.644 L584.236,37.226 L586.241,37.226 L587.512,53.535 L584.241,53.535 C582.805,48.913 580.865,45.584 578.419,43.549 C575.973,41.515 572.955,40.498 569.368,40.498 C566.269,40.498 563.839,41.254 562.078,42.768 C560.316,44.282 559.436,46.130 559.436,48.311 C559.436,50.232 560.251,51.826 561.882,53.096 C563.479,54.398 566.611,55.425 571.274,56.177 ZM534.081,74.189 C532.226,77.509 530.053,80.008 527.562,81.684 C525.072,83.361 522.281,84.199 519.188,84.199 C513.980,84.199 509.545,82.018 505.883,77.656 C502.221,73.294 500.390,67.532 500.390,60.371 C500.390,52.624 502.733,46.439 507.421,41.816 C511.099,38.203 515.331,36.396 520.116,36.396 C523.046,36.396 525.674,37.128 528.002,38.593 C530.329,40.058 532.355,42.272 534.081,45.234 L534.081,19.404 C534.081,18.037 533.552,16.955 532.494,16.157 C531.436,15.359 529.784,14.960 527.538,14.960 L524.267,14.960 L524.267,11.298 L542.138,10.468 L542.138,73.066 C542.138,75.507 542.601,77.249 543.529,78.291 C544.457,79.333 545.849,79.853 547.704,79.853 L550.878,79.853 L550.878,83.515 L535.253,83.515 L534.081,74.189 ZM530.126,45.136 C527.782,42.011 524.884,40.449 521.435,40.449 C517.919,40.449 515.127,41.898 513.060,44.794 C510.993,47.692 509.960,52.575 509.960,59.443 C509.960,66.898 511.017,72.147 513.134,75.190 C515.249,78.234 517.968,79.755 521.288,79.755 C524.836,79.755 527.871,78.055 530.394,74.653 C532.917,71.252 534.179,66.279 534.179,59.736 C534.179,53.551 532.827,48.685 530.126,45.136 ZM465.482,79.853 L467.777,79.853 C470.772,79.853 472.887,79.528 474.125,78.876 C474.971,78.421 475.394,77.721 475.394,76.777 C475.394,76.224 475.280,75.638 475.052,75.019 L469.079,59.687 L440.516,59.687 L437.162,68.476 C436.283,70.820 435.843,72.675 435.843,74.042 C435.843,75.638 436.583,77.005 438.065,78.144 C439.546,79.284 441.703,79.853 444.535,79.853 L446.976,79.853 L446.976,83.515 L420.804,83.515 L420.804,79.853 C423.603,79.853 425.816,79.243 427.443,78.022 C429.071,76.801 430.568,74.482 431.935,71.064 L456.481,9.785 L459.750,9.785 L485.647,75.849 C486.689,78.519 488.821,79.853 492.045,79.853 L494.291,79.853 L494.291,83.515 L465.482,83.515 L465.482,79.853 ZM455.057,23.701 L442.091,55.878 L467.595,55.878 L455.057,23.701 ZM392.252,81.806 C388.785,83.857 385.050,84.882 381.046,84.882 C375.121,84.882 370.100,82.636 365.982,78.144 C361.864,73.652 359.805,67.825 359.805,60.664 C359.805,53.470 361.872,47.626 366.007,43.134 C370.140,38.642 375.235,36.396 381.290,36.396 C387.442,36.396 392.609,38.618 396.793,43.061 C400.975,47.504 403.067,53.356 403.067,60.615 C403.067,65.628 402.131,69.900 400.259,73.432 C398.387,76.965 395.718,79.755 392.252,81.806 ZM390.592,44.599 C388.264,41.442 385.163,39.863 381.290,39.863 C377.644,39.863 374.649,41.515 372.305,44.819 C369.962,48.123 368.790,53.339 368.790,60.468 C368.790,67.728 369.953,73.034 372.281,76.386 C374.608,79.739 377.611,81.416 381.290,81.416 C385.098,81.416 388.182,79.739 390.543,76.386 C392.902,73.034 394.083,67.548 394.083,59.931 C394.083,52.868 392.918,47.757 390.592,44.599 ZM327.157,79.853 L331.747,79.853 C333.244,79.853 334.360,79.495 335.092,78.779 C335.824,78.063 336.191,77.054 336.191,75.751 L336.191,20.087 C336.191,18.460 335.751,17.272 334.872,16.523 C333.668,15.482 332.187,14.960 330.429,14.960 L326.327,14.960 L326.327,11.298 L344.443,10.468 L344.443,76.777 C344.443,77.689 344.719,78.388 345.273,78.876 C346.086,79.528 347.079,79.853 348.251,79.853 L353.085,79.853 L353.085,83.515 L327.157,83.515 L327.157,79.853 ZM313.491,81.806 C310.024,83.857 306.289,84.882 302.285,84.882 C296.360,84.882 291.339,82.636 287.221,78.144 C283.103,73.652 281.045,67.825 281.045,60.664 C281.045,53.470 283.111,47.626 287.246,43.134 C291.379,38.642 296.474,36.396 302.529,36.396 C308.681,36.396 313.849,38.618 318.032,43.061 C322.214,47.504 324.306,53.356 324.306,60.615 C324.306,65.628 323.370,69.900 321.499,73.432 C319.626,76.965 316.958,79.755 313.491,81.806 ZM311.831,44.599 C309.503,41.442 306.402,39.863 302.529,39.863 C298.883,39.863 295.888,41.515 293.545,44.819 C291.201,48.123 290.029,53.339 290.029,60.468 C290.029,67.728 291.193,73.034 293.520,76.386 C295.847,79.739 298.850,81.416 302.529,81.416 C306.338,81.416 309.421,79.739 311.782,76.386 C314.142,73.034 315.322,67.548 315.322,59.931 C315.322,52.868 314.158,47.757 311.831,44.599 ZM252.766,84.882 C245.311,84.882 238.833,82.474 233.332,77.656 L227.815,84.394 L224.299,84.394 L224.299,56.416 L227.815,56.416 C229.182,64.130 232.241,70.218 236.995,74.677 C241.747,79.137 247.102,81.367 253.059,81.367 C257.876,81.367 261.807,79.943 264.851,77.094 C267.894,74.246 269.416,70.788 269.416,66.718 C269.416,64.407 268.846,62.381 267.707,60.639 C266.568,58.898 264.761,57.433 262.288,56.245 C259.813,55.057 254.947,53.616 247.688,51.923 C239.712,50.036 234.276,47.919 231.379,45.576 C227.310,42.255 225.276,37.552 225.276,31.464 C225.276,25.117 227.302,19.917 231.355,15.864 C235.408,11.811 240.591,9.785 246.907,9.785 C249.934,9.785 252.815,10.322 255.549,11.396 C258.284,12.470 261.116,14.261 264.045,16.767 L268.440,10.468 L272.004,10.468 L272.297,36.787 L269.075,36.787 C267.056,28.714 264.070,22.822 260.115,19.111 C256.160,15.400 251.610,13.544 246.467,13.544 C242.170,13.544 238.655,14.832 235.920,17.406 C233.186,19.980 231.819,23.124 231.819,26.838 C231.819,29.151 232.339,31.180 233.380,32.922 C234.420,34.666 235.974,36.083 238.040,37.174 C240.105,38.266 244.004,39.427 249.735,40.658 C257.778,42.406 263.418,44.176 266.658,45.966 C269.896,47.757 272.313,50.011 273.909,52.729 C275.503,55.447 276.301,58.630 276.301,62.275 C276.301,68.786 274.112,74.181 269.734,78.461 C265.355,82.742 259.700,84.882 252.766,84.882 ZM184.259,46.015 L167.332,85.396 C164.456,92.084 161.570,96.682 158.673,99.189 C155.744,101.728 152.602,102.998 149.249,102.998 C146.808,102.998 144.846,102.330 143.366,100.996 C141.884,99.660 141.144,98.017 141.144,96.064 C141.144,94.599 141.599,93.394 142.511,92.451 C143.422,91.506 144.562,91.035 145.929,91.035 C147.166,91.035 148.207,91.441 149.054,92.255 C149.900,93.069 150.324,94.045 150.324,95.185 C150.324,95.543 150.258,96.031 150.128,96.650 C149.998,97.138 149.933,97.496 149.933,97.724 C149.933,98.505 150.437,98.896 151.447,98.896 C152.521,98.896 153.733,98.505 155.084,97.724 C156.435,96.943 157.697,95.689 158.869,93.964 C160.040,92.239 162.095,88.417 165.032,82.499 L147.669,45.283 C147.052,43.981 146.281,43.012 145.356,42.377 C144.431,41.743 143.076,41.312 141.290,41.084 L141.290,37.763 L163.214,37.763 L163.214,41.084 L161.163,41.084 C159.242,41.084 157.932,41.336 157.233,41.840 C156.532,42.345 156.183,43.069 156.183,44.013 C156.183,44.437 156.281,44.860 156.476,45.283 L169.222,72.774 L178.693,49.970 C179.376,48.343 179.718,46.748 179.718,45.185 C179.718,43.981 179.246,43.045 178.302,42.377 C177.358,41.711 175.470,41.279 172.638,41.084 L172.638,37.763 L191.681,37.763 L191.681,41.084 C188.002,41.442 185.529,43.085 184.259,46.015 ZM121.264,74.482 C118.533,77.705 115.787,80.130 113.024,81.757 C110.261,83.385 107.467,84.199 104.639,84.199 C100.512,84.199 97.050,82.816 94.255,80.048 C91.427,77.314 90.014,72.675 90.014,66.132 L90.014,46.259 C90.014,44.501 89.313,43.167 87.914,42.255 C86.938,41.605 84.936,41.247 81.908,41.181 L81.908,37.763 L98.119,36.933 L98.119,67.255 C98.119,70.966 99.053,73.831 100.921,75.849 C102.788,77.868 105.201,78.876 108.156,78.876 C111.794,78.876 114.889,77.404 117.438,74.458 C119.988,71.512 121.264,67.825 121.264,63.398 L121.264,46.259 C121.264,44.697 120.702,43.484 119.579,42.622 C118.456,41.759 116.299,41.279 113.109,41.181 L113.109,37.763 L129.174,36.933 L129.174,74.482 C129.174,76.208 129.662,77.534 130.639,78.461 C131.615,79.389 132.983,79.853 134.740,79.853 L137.621,79.853 L137.621,83.125 L122.240,83.466 L121.264,74.482 ZM74.833,64.065 C74.833,67.649 73.864,70.825 71.927,73.595 C69.990,76.364 66.768,78.709 62.259,80.632 C57.751,82.555 52.632,83.515 46.903,83.515 L10.380,83.515 L10.380,79.853 L16.337,79.853 C18.127,79.853 19.437,79.560 20.267,78.974 C21.097,78.388 21.512,77.721 21.512,76.972 L21.512,19.111 C21.512,17.744 21.105,16.711 20.292,16.010 C19.478,15.311 18.290,14.960 16.727,14.960 L10.380,14.960 L10.380,11.298 L48.026,11.298 C55.415,11.298 61.071,12.925 64.994,16.177 C68.916,19.429 70.878,23.511 70.878,28.421 C70.878,32.519 69.510,35.999 66.776,38.860 C64.042,41.722 59.923,43.982 54.423,45.641 C61.226,47.074 66.328,49.330 69.730,52.409 C73.131,55.489 74.833,59.373 74.833,64.065 ZM55.668,40.748 C58.158,38.278 59.403,34.232 59.403,28.609 C59.403,25.133 58.809,22.419 57.621,20.469 C56.432,18.519 54.707,17.097 52.445,16.203 C50.182,15.310 46.268,14.863 40.702,14.863 C36.763,14.863 34.321,15.147 33.378,15.716 C32.433,16.285 31.962,17.284 31.962,18.714 L31.962,44.453 L45.634,44.453 C49.833,44.453 53.177,43.218 55.668,40.748 ZM58.671,52.387 C55.806,49.539 51.851,48.115 46.805,48.115 L31.962,48.115 L31.962,75.947 C31.962,77.249 32.344,78.226 33.109,78.876 C33.874,79.528 35.249,79.853 37.235,79.853 L45.975,79.853 C51.769,79.853 56.050,78.576 58.817,76.020 C61.584,73.465 62.967,69.485 62.967,64.082 C62.967,59.134 61.535,55.236 58.671,52.387 Z"/>
</g>
</svg>